294796 982083 525
697821 776765 504
753665 804853 468
887544 933187 476
518438 704190 509
205438 736327 509
371040 954932 525
903896 997207 507
184636 347356 443
90085 548974 470
5317 387318 443
703450 855053 525
466791 890610 525
723697 913631 525
180503 951423 525
517233 814324 509
637968 996622 525
137177 915457 525
964571 971008 458
176896 571703 470
179623 499357 449
486999 515919 470
415609 529097 470
580401 805332 509
798763 942454 525
569801 818386 509
777328 842593 525
765690 921691 525
807274 828770 450
909943 963001 507
703839 750685 504
482896 894325 525
662053 971725 525
753262 963000 525
664614 819597 504
619548 893773 525
822400 915013 525
904809 968017 507
517265 726440 509
348166 624639 470
175519 426968 449
120112 949902 525
701129 876204 525
706877 726039 411
395011 651655 509
6095 849172 525
553910 861442 525
950569 990952 458
638792 650671 416
352502 561605 470
143904 477080 449
657555 716054 504
98419 650181 509
714226 993744 525
577308 967744 525
931714 944806 507
182 649218 509
725493 727469 349
957448 965118 414
229537 618683 470
559104 594304 434
961221 972647 458
744440 978708 525
838889 940795 507
125540 439073 449
706461 763256 424
183263 711105 509
255568 294262 407
456114 972978 525
407276 676524 509
52009 310401 443
806069 909149 525
410638 839144 525
263410 272675 407
963936 969411 365
230460 325930 443
748397 855219 525
145970 758532 509
123297 389047 443
895892 898292 370
196073 470894 449
538098 852894 525
476283 918342 525
170927 993100 525
763461 947606 525
475732 617615 470
937012 948992 507
377569 572601 470
323278 984162 525
715740 865949 525
153746 159592 383
320170 743758 509
157704 190182 370
904892 946421 507
470818 782508 509
39747 686561 509
913051 923561 445
66047 496988 449
371511 951955 525
341554 595134 470
325086 803333 509
970261 995361 458
118910 974670 525
119663 756440 509
8632 786529 509
239314 430503 449
801423 996589 525
574430 982165 525
45443 664067 509
259948 298445 407
299931 559635 470
693061 949139 525
387448 720425 509
622138 925655 525
505991 905178 525
913751 945538 507
310709 973574 525
112997 843491 525
761576 890411 525
381716 614532 470
577973 787920 509
952402 952623 414
200334 400053 443
358346 848961 525
25979 493110 449
271947 855989 525
427897 434942 387
48803 917769 525
234028 719445 509
84215 251226 443
654454 863945 525
590915 800932 509
411712 961418 525
414602 774694 509
446482 825436 509
963315 968440 383
437167 660251 509
423673 442448 418
952464 956556 414
903095 908907 445
910221 964022 507
814262 915973 525
159873 789547 509
663374 755606 504
553826 880851 525
153740 376854 443
275286 523333 470
193266 252575 443
958477 972850 458
370197 811402 509
424005 923928 525
449236 855238 525
759144 866117 525
518493 819424 509
674748 702166 442
709873 937628 525
106544 613672 470
452821 541901 470
407023 765306 509
170228 509562 449
883604 932916 476
698860 964335 525
578532 934649 525
865708 991275 507
519813 814656 509
961790 962126 246
79332 362364 443
314901 993328 525
813666 816348 357
569906 886409 525
764893 913946 525
603116 983003 525
823737 845675 525
647764 897424 525
682044 880012 525
211432 939909 525
651868 689685 442
744361 785863 468
312329 898862 525
787232 955547 525
355890 977301 525
285871 986782 525
689782 948812 525
293518 513234 470
944075 974319 458
501776 761103 509
163026 897147 525
90320 178885 383
670741 962271 525
727435 912058 525
575895 609284 434
428348 631545 509
868978 908439 445
968076 969176 352
802601 902686 525
33271 731379 509
524156 701617 509
613533 943104 525
939731 944921 383
227301 972328 525
790294 826694 468
612599 768708 509
853790 963454 507
449996 458395 387
460823 664096 509
387231 701909 509
136121 190574 383
774394 945859 525
518018 698125 509
696318 902329 525
517603 912462 525
479114 487797 413
68551 904790 525
275521 664185 509
509609 550097 470
911910 982295 507
251719 647125 509
763136 940544 525
247251 405684 441
649863 840961 525
900474 906835 445
254705 984057 525
872492 950134 507
61517 708421 509
281483 593840 470
711133 822508 468
507243 766201 509
860665 900799 445
302717 870720 525
93987 700243 509
148920 395205 443
622142 968077 525
40321 459659 449
525968 587590 452
108324 858792 525
505555 689123 509
722836 957719 525
65216 199050 383
299270 862800 525
495752 670848 509
904384 963170 507
889748 921660 476
416956 433343 418
497333 737400 509
396514 749575 509
41911 157736 383
107129 238340 443
965889 972030 458
559242 793213 509
454838 574808 470
177602 425337 449
696184 955052 525
230565 712347 509
5680 246932 443
907949 947675 507
620497 697879 509
218230 266749 443
733874 980251 525
770573 972447 525
354859 941108 525
332439 863238 525
732340 963350 525
570732 725230 509
606834 786574 509
209912 678545 509
327271 528489 470
531977 559416 452
307772 819702 509
804674 969955 525
802287 829217 450
834701 899003 525
544781 909286 525
442944 485315 444
198028 584342 470
19777 388841 443
910334 998854 507
969475 973862 458
811600 918026 525
360728 872784 525
199915 784732 509
499929 902276 525
487882 555114 470
60553 360303 443
304360 390440 441
128925 484641 449
107584 730774 509
39346 216110 383
36380 817473 509
440933 662290 509
715626 799629 468
807113 990063 525
832743 923374 525
778548 996776 525
336620 693027 509
592511 886163 525
729736 765023 424
63723 614944 470
634257 785253 504
523183 964849 525
9323 372474 443
555176 794103 509
635554 638299 354
279182 878679 525
96631 196354 383
416252 855072 525
200644 406097 443
458039 667550 509
509867 992299 525
207464 386215 443
395686 508666 449
892931 991143 507
402326 554183 470
362862 856955 525
610658 813863 509
485112 754419 509
557972 644210 509
246797 916994 525
654630 834968 504
375373 394029 436
265913 992454 525
583338 816470 509
524901 751831 509
519764 634022 509
787876 927407 525
901074 947885 507
37114 889754 525
328806 373396 441
280393 571901 470
985932 995615 396
597532 748464 509
20944 136450 354
511336 969117 525
368854 536800 470
813537 868909 525
427140 475150 444
45763 796410 509
565827 750943 509
561767 854230 525
135162 623126 470
832639 847638 525
553028 912057 525
850064 928397 476
329013 994746 525
593322 849669 525
531420 986486 525
785993 898525 525
856271 959410 507
330014 867128 525
483118 789599 509
479263 585407 470
